digraph G {
node0 [shape="box" color="steelblue" style="filled" label="VFXValue`1 Float (8)
Rate_a"]
node1 [shape="box" color="steelblue" style="filled" label="VFXValue`1 Float (32)
Rate_a"]
node2 [shape="box" color="steelblue" style="filled" label="VFXValue`1 Float3 ((-0.01, 1.40, -0.02))
bounds_center
bounds_center"]
node3 [shape="box" color="steelblue" style="filled" label="VFXValue`1 Float3 ((3.00, 3.96, 3.06))
bounds_size
bounds_size"]
node4 [shape="box" color="steelblue" style="filled" label="VFXValue`1 Float3 ((0.50, 0.50, 0.50))
boundsPadding"]
node5 [shape="box" color="steelblue" style="filled" label="VFXValue`1 Float (0.4)
A_a
A_b"]
node6 [shape="box" color="steelblue" style="filled" label="VFXValue`1 Float (0.5)
B_a
B_b
roughness_a"]
node7 [shape="box" color="cyan" style="filled" label="VFXBuiltInExpression Float (DeltaTime)
deltaTime_a
deltaTime_a
deltaTime_b
deltaTime_c"]
node8 [shape="box" color="steelblue" style="filled" label="VFXValue`1 Float (1)
Size_a
volumeFactor_a
Drag_a"]
node9 [shape="box" color="cyan" style="filled" label="VFXExpressionBakeCurve Float4
Size_c"]
node10 [shape="box" color="lightslategray" style="filled" label="VFXValue`1 Curve (UnityEngine.AnimationCurve)"]
node11 [shape="box" color="cyan" style="filled" label="VFXExpressionCombine Float3
Color_d"]
node12 [shape="box" label="VFXExpressionExtractComponent Float"]
node13 [shape="box" label="VFXValue`1 Float4 ((1.00, 0.21, 0.00, 0.00))"]
node14 [shape="box" label="VFXExpressionExtractComponent Float"]
node15 [shape="box" label="VFXExpressionExtractComponent Float"]
node16 [shape="box" color="cyan" style="filled" label="VFXExpressionBakeGradient Float2
Color_e"]
node17 [shape="box" color="lightslategray" style="filled" label="VFXValue`1 ColorGradient (UnityEngine.Gradient)"]
node18 [shape="box" color="cyan" style="filled" label="VFXTexture2DValue Texture2D (866)
mainTexture"]
node19 [shape="box" color="steelblue" style="filled" label="VFXValue`1 Float (6.283185)
arcSphere_arc_a"]
node20 [shape="box" color="steelblue" style="filled" label="VFXValue`1 Matrix4x4 (0.10000	0.00000	0.00000	0.00000
0.00000	0.10000	0.00000	0.00000
0.00000	0.00000	0.10000	0.00000
0.00000	0.00000	0.00000	1.00000
)
transform_a"]
node21 [shape="box" color="steelblue" style="filled" label="VFXValue`1 Matrix4x4 (10.00000	0.00000	0.00000	0.00000
0.00000	10.00000	0.00000	0.00000
0.00000	0.00000	10.00000	0.00000
0.00000	0.00000	0.00000	1.00000
)
inverseTranspose_a"]
node22 [shape="box" color="steelblue" style="filled" label="VFXValue`1 Matrix4x4 (1.00000	0.00000	0.00000	0.00000
0.00000	1.00000	0.00000	0.00000
0.00000	0.00000	1.00000	0.00000
0.00000	0.00000	0.00000	1.00000
)
InvFieldTransform_a
FieldTransform_a"]
node23 [shape="box" color="steelblue" style="filled" label="VFXValue`1 Float (10)
Intensity_a"]
node24 [shape="box" color="steelblue" style="filled" label="VFXValue`1 Float (2)
frequency_a
lacunarity_a"]
node25 [shape="box" color="steelblue" style="filled" label="VFXValue`1 Int32 (1)
octaves_a"]
node26 [shape="box" color="steelblue" style="filled" label="VFXValue`1 Float (0.05)
A_a"]
node27 [shape="box" color="steelblue" style="filled" label="VFXValue`1 Float (0.25)
B_a"]
node28 [shape="box" color="cyan" style="filled" label="VFXExpressionBakeCurve Float4
Size_c"]
node29 [shape="box" color="lightslategray" style="filled" label="VFXValue`1 Curve (UnityEngine.AnimationCurve)"]
node30 [shape="box" color="steelblue" style="filled" label="VFXValue`1 Float3 ((1.00, 1.00, 1.00))
Color_d"]
node31 [shape="box" color="cyan" style="filled" label="VFXExpressionBakeGradient Float2
Color_e"]
node32 [shape="box" color="lightslategray" style="filled" label="VFXValue`1 ColorGradient (UnityEngine.Gradient)"]
node33 [shape="box" color="cyan" style="filled" label="VFXTexture2DValue Texture2D (866)
mainTexture"]
node10 -> node9 
node12 -> node11 [headlabel="0"]
node14 -> node11 [headlabel="1"]
node15 -> node11 [headlabel="2"]
node13 -> node12 
node13 -> node14 
node13 -> node15 
node17 -> node16 
node29 -> node28 
node32 -> node31 
}
